@startuml

hide footbox
actor Subscriber

Subscriber -> Subscription: << createSubscription >>
activate Subscription

loop
	Subscriber -> Subscription: SearchAccidents()
	loop
		Subscriber -> Subscription: SearchInjuredOnes()
	end
end

Subscriber -> Subscription: Unsubscribe()
deactivate Subscription

@enduml
