@startuml

hide footbox
actor User
actor Medic

User -> Injured: Assign()

Medic -> Injured: Accept()

loop
	Medic -> HealthUpdate: << createHealthUpdate >>
end

Medic -> Injured: Discharge()

@enduml
